%!PS-Adobe-3.0 EPSF-3.0
%%Creator: cairo 1.14.0 (http://cairographics.org)
%%CreationDate: Tue Jan 19 09:37:05 2016
%%Pages: 1
%%DocumentData: Clean7Bit
%%LanguageLevel: 2
%%BoundingBox: 0 -1 144 47
%%EndComments
%%BeginProlog
save
50 dict begin
/q { gsave } bind def
/Q { grestore } bind def
/cm { 6 array astore concat } bind def
/w { setlinewidth } bind def
/J { setlinecap } bind def
/j { setlinejoin } bind def
/M { setmiterlimit } bind def
/d { setdash } bind def
/m { moveto } bind def
/l { lineto } bind def
/c { curveto } bind def
/h { closepath } bind def
/re { exch dup neg 3 1 roll 5 3 roll moveto 0 rlineto
      0 exch rlineto 0 rlineto closepath } bind def
/S { stroke } bind def
/f { fill } bind def
/f* { eofill } bind def
/n { newpath } bind def
/W { clip } bind def
/W* { eoclip } bind def
/BT { } bind def
/ET { } bind def
/pdfmark where { pop globaldict /?pdfmark /exec load put }
    { globaldict begin /?pdfmark /pop load def /pdfmark
    /cleartomark load def end } ifelse
/BDC { mark 3 1 roll /BDC pdfmark } bind def
/EMC { mark /EMC pdfmark } bind def
/cairo_store_point { /cairo_point_y exch def /cairo_point_x exch def } def
/Tj { show currentpoint cairo_store_point } bind def
/TJ {
  {
    dup
    type /stringtype eq
    { show } { -0.001 mul 0 cairo_font_matrix dtransform rmoveto } ifelse
  } forall
  currentpoint cairo_store_point
} bind def
/cairo_selectfont { cairo_font_matrix aload pop pop pop 0 0 6 array astore
    cairo_font exch selectfont cairo_point_x cairo_point_y moveto } bind def
/Tf { pop /cairo_font exch def /cairo_font_matrix where
      { pop cairo_selectfont } if } bind def
/Td { matrix translate cairo_font_matrix matrix concatmatrix dup
      /cairo_font_matrix exch def dup 4 get exch 5 get cairo_store_point
      /cairo_font where { pop cairo_selectfont } if } bind def
/Tm { 2 copy 8 2 roll 6 array astore /cairo_font_matrix exch def
      cairo_store_point /cairo_font where { pop cairo_selectfont } if } bind def
/g { setgray } bind def
/rg { setrgbcolor } bind def
/d1 { setcachedevice } bind def
%%EndProlog
%%BeginSetup
%%EndSetup
%%Page: 1 1
%%BeginPageSetup
%%PageBoundingBox: 0 -1 144 47
%%EndPageSetup
q 0 -1 144 48 rectclip q
0.12549 0.321569 0.505882 rg
91.441 26.8 m 92.879 26.8 94.879 26.558 96.801 26.242 c 96.961 26.242 97.121
 26.242 97.281 26.32 c 97.441 26.402 97.52 26.558 97.52 26.718 c 97.922 
29.921 l 98 30.242 97.762 30.48 97.441 30.558 c 95.52 31.039 93.359 31.281
 91.281 31.281 c 85.52 31.281 82.641 28.878 82.641 24.242 c 82.641 13.679
 l 82.641 8.96 85.52 6.64 91.281 6.64 c 93.359 6.64 95.52 6.878 97.441 7.359
 c 97.762 7.441 97.922 7.761 97.922 8 c 97.52 11.199 l 97.52 11.359 97.441
 11.519 97.281 11.601 c 97.121 11.679 96.961 11.761 96.801 11.679 c 94.879
 11.359 92.879 11.121 91.441 11.121 c 88.641 11.121 87.68 11.921 87.68 14.402
 c 87.68 23.519 l 87.68 26 88.641 26.8 91.441 26.8 c f
54 31.039 m 50.238 31.039 l 49.922 31.039 49.602 30.8 49.602 30.402 c 49.602
 21.359 l 41.441 21.359 l 41.441 30.402 l 41.441 30.718 41.199 31.039 40.801
 31.039 c 37.039 31.039 l 36.719 31.039 36.398 30.8 36.398 30.402 c 36.398
 7.601 l 36.398 7.281 36.641 6.96 37.039 6.96 c 40.801 6.96 l 41.121 6.96
 41.441 7.199 41.441 7.601 c 41.441 16.878 l 49.602 16.878 l 49.602 7.601
 l 49.602 7.281 49.84 6.96 50.238 6.96 c 54 6.96 l 54.32 6.96 54.641 7.199
 54.641 7.601 c 54.641 30.402 l 54.559 30.718 54.32 31.039 54 31.039 c f
126 13.519 m 126 11.359 l 125.441 11.039 124.32 10.558 123.039 10.558 c
 121.922 10.558 121.602 10.878 121.602 12 c 121.602 13.121 121.84 13.441
 123.121 13.441 c 126 13.441 l h
123.602 25.039 m 121.762 25.039 119.52 24.718 117.922 24.32 c 117.602 24.242
 117.441 23.921 117.441 23.601 c 117.84 20.96 l 117.84 20.8 117.922 20.64
 118.078 20.558 c 118.238 20.48 118.398 20.402 118.559 20.48 c 120.078 20.8
 121.602 20.96 122.879 20.96 c 125.52 20.96 125.922 20.402 125.922 18.64
 c 125.922 17.121 l 122.078 17.121 l 118.398 17.121 116.801 15.601 116.801
 12 c 116.801 8.558 118.559 6.64 121.52 6.64 c 123.281 6.64 125.039 7.121
 126.48 8 c 126.641 7.441 l 126.719 7.199 126.961 6.96 127.199 6.96 c 130.078
 6.96 l 130.398 6.96 130.719 7.199 130.719 7.601 c 130.719 18.558 l 130.879
 23.281 128.879 25.039 123.602 25.039 c f
143.359 10.48 m 143.359 10.64 143.199 10.8 143.121 10.878 c 142.961 10.96
 142.801 11.039 142.641 10.96 c 142 10.8 141.359 10.718 140.961 10.718 c
 140.078 10.718 139.68 11.121 139.68 12 c 139.68 20.718 l 143.199 20.718
 l 143.52 20.718 143.84 20.96 143.84 21.359 c 143.84 24.082 l 143.84 24.402
 143.602 24.718 143.199 24.718 c 139.68 24.718 l 139.68 28.878 l 139.68 
29.039 139.602 29.199 139.441 29.359 c 139.281 29.441 139.121 29.519 138.961
 29.519 c 135.359 29.039 l 135.039 28.96 134.801 28.718 134.801 28.402 c
 134.801 24.718 l 132.801 24.718 l 132.48 24.718 132.16 24.48 132.16 24.082
 c 132.16 21.359 l 132.16 21.039 132.398 20.718 132.801 20.718 c 134.801
 20.718 l 134.801 11.441 l 134.801 8.242 136.48 6.64 139.762 6.64 c 140.719
 6.64 142.32 6.878 143.359 7.199 c 143.602 7.281 143.84 7.601 143.762 7.839
 c h
143.359 10.48 m f
61.84 24.718 m 58.238 24.718 l 57.922 24.718 57.602 24.48 57.602 24.082
 c 57.602 7.601 l 57.602 7.281 57.84 6.96 58.238 6.96 c 61.84 6.96 l 62.16
 6.96 62.48 7.199 62.48 7.601 c 62.48 24.082 l 62.398 24.402 62.16 24.718
 61.84 24.718 c f
61.84 31.679 m 58.238 31.679 l 57.922 31.679 57.602 31.441 57.602 31.039
 c 57.602 27.441 l 57.602 27.121 57.84 26.8 58.238 26.8 c 61.84 26.8 l 62.16
 26.8 62.48 27.039 62.48 27.441 c 62.48 31.039 l 62.398 31.441 62.16 31.679
 61.84 31.679 c f
61.84 24.718 m 58.238 24.718 l 57.922 24.718 57.602 24.48 57.602 24.082
 c 57.602 7.601 l 57.602 7.281 57.84 6.96 58.238 6.96 c 61.84 6.96 l 62.16
 6.96 62.48 7.199 62.48 7.601 c 62.48 24.082 l 62.398 24.402 62.16 24.718
 61.84 24.718 c f
75.441 18.96 m 75.441 12.878 l 75.441 11.441 74.879 10.878 73.52 10.878
 c 72.16 10.878 70.719 11.121 70 11.281 c 70 19.441 l 70.801 20.16 72.238
 20.878 73.602 20.878 c 74.879 20.878 75.441 20.32 75.441 18.96 c 74.641
 25.039 m 72.719 25.039 70.961 24.48 69.359 23.441 c 69.121 24.32 l 69.039
 24.558 68.801 24.718 68.559 24.718 c 65.762 24.718 l 65.441 24.718 65.121
 24.48 65.121 24.082 c 65.121 0.64 l 65.121 0.32 65.359 -0 65.762 -0 c 69.359
 -0 l 69.68 -0 70 0.242 70 0.64 c 70 7.121 l 71.441 6.878 73.039 6.718 74.32
 6.718 c 78.238 6.718 80.238 8.878 80.238 13.039 c 80.238 18.878 l 80.238
 24 77.199 25.039 74.641 25.039 c f
110.879 25.039 m 109.121 25.039 106.719 24.48 104.879 23.519 c 104.879 
31.039 l 104.879 31.359 104.641 31.679 104.238 31.679 c 100.641 31.679 l
 100.32 31.679 100 31.441 100 31.039 c 100 7.519 l 100 7.199 100.238 6.878
 100.641 6.878 c 104.238 6.878 l 104.559 6.878 104.879 7.121 104.879 7.519
 c 104.879 19.039 l 106.16 19.679 108 20.402 109.121 20.402 c 109.922 20.402
 110.238 20.082 110.238 19.281 c 110.238 7.601 l 110.238 7.281 110.48 6.96
 110.879 6.96 c 114.48 6.96 l 114.801 6.96 115.121 7.199 115.121 7.601 c
 115.121 19.679 l 114.961 23.281 113.602 25.039 110.879 25.039 c f
41.68 46.16 m 41.68 46.242 41.602 46.32 41.441 46.32 c 39.281 46.32 l 39.199
 46.32 39.121 46.242 39.039 46.16 c 36.32 37.679 l 36.32 37.441 l 36.398
 37.359 36.398 37.359 36.48 37.359 c 37.922 37.359 l 38 37.359 38.078 37.441
 38.16 37.519 c 40 43.761 l 40 43.761 40.078 43.921 40.238 43.921 c 40.398
 43.921 40.48 43.761 40.48 43.761 c 41.359 40.8 l 40.238 40.8 l 40.16 40.8
 40.078 40.718 40 40.64 c 39.68 39.441 l 39.68 39.281 l 39.762 39.199 39.762
 39.199 39.84 39.199 c 41.84 39.199 l 42.32 37.519 l 42.32 37.441 42.398
 37.359 42.559 37.359 c 44 37.359 l 44.078 37.359 44.16 37.359 44.16 37.441
 c 44.238 37.519 44.238 37.601 44.16 37.679 c h
41.68 46.16 m f
48.078 38.64 m 48.078 38.718 48 38.718 48 38.8 c 47.922 38.8 47.922 38.878
 47.84 38.8 c 47.602 38.718 47.359 38.718 47.199 38.718 c 46.879 38.718 
46.719 38.878 46.719 39.199 c 46.719 42.48 l 48 42.48 l 48.16 42.48 48.238
 42.558 48.238 42.718 c 48.238 43.679 l 48.238 43.839 48.16 43.921 48 43.921
 c 46.719 43.921 l 46.719 45.519 l 46.719 45.601 46.719 45.679 46.641 45.679
 c 46.559 45.761 46.559 45.761 46.48 45.761 c 45.121 45.601 l 45.039 45.601
 44.961 45.519 44.961 45.359 c 44.961 44 l 44.238 44 l 44.078 44 44 43.921
 44 43.761 c 44 42.718 l 43.922 42.558 44 42.48 44.16 42.48 c 44.879 42.48
 l 44.879 39.039 l 44.879 37.839 45.52 37.281 46.719 37.281 c 47.039 37.281
 47.68 37.359 48.078 37.519 c 48.16 37.519 48.238 37.679 48.238 37.761 c
 h
48.078 38.64 m f
50.559 46.48 m 49.199 46.48 l 49.039 46.48 48.961 46.402 48.961 46.242 
c 48.961 37.519 l 48.961 37.359 49.039 37.281 49.199 37.281 c 50.559 37.281
 l 50.719 37.281 50.801 37.359 50.801 37.519 c 50.801 46.242 l 50.801 46.402
 50.719 46.48 50.559 46.48 c f
54.961 39.761 m 54.961 38.96 l 54.719 38.878 54.32 38.64 53.84 38.64 c 
53.441 38.64 53.281 38.8 53.281 39.199 c 53.281 39.601 53.359 39.761 53.84
 39.761 c h
54.078 44.082 m 53.359 44.082 52.559 44 52 43.839 c 51.922 43.839 51.84
 43.679 51.84 43.601 c 52 42.64 l 51.922 42.48 52 42.48 52 42.402 c 52.078
 42.402 52.078 42.32 52.16 42.402 c 52.719 42.48 53.281 42.558 53.762 42.558
 c 54.719 42.558 54.879 42.32 54.879 41.679 c 54.879 41.121 l 53.441 41.121
 l 52.078 41.121 51.441 40.558 51.441 39.199 c 51.441 37.921 52.078 37.199
 53.199 37.199 c 53.84 37.199 54.48 37.359 55.039 37.679 c 55.121 37.441
 l 55.121 37.359 55.199 37.281 55.359 37.281 c 56.48 37.281 l 56.641 37.281
 56.719 37.359 56.719 37.519 c 56.719 41.679 l 56.719 43.441 56 44.082 54.078
 44.082 c f
60.16 41.441 m 59.359 41.679 59.359 41.679 59.359 42.16 c 59.359 42.48 
59.359 42.64 60.078 42.64 c 60.559 42.64 61.281 42.558 61.68 42.48 c 61.762
 42.48 61.84 42.48 61.84 42.558 c 61.922 42.558 61.922 42.64 61.922 42.718
 c 62.078 43.761 l 62.078 43.839 62 44 61.922 44 c 61.359 44 60.641 44.082
 60 44.082 c 57.922 44.082 57.52 43.281 57.52 42.16 c 57.52 40.878 57.762
 40.402 59.359 40.082 c 60.398 39.839 60.398 39.679 60.398 39.359 c 60.398
 38.96 60.398 38.8 59.68 38.8 c 59.121 38.8 58.48 38.878 57.922 39.039 c
 57.762 39.039 l 57.68 39.039 57.68 38.96 57.68 38.878 c 57.52 37.921 l 
57.52 37.839 57.602 37.679 57.68 37.679 c 58.32 37.519 59.199 37.359 59.84
 37.359 c 61.84 37.359 62.238 38.16 62.238 39.441 c 62.16 40.718 61.922 
40.96 60.16 41.441 c f
65.359 41.441 m 64.559 41.679 64.559 41.679 64.559 42.16 c 64.559 42.48
 64.559 42.64 65.281 42.64 c 65.762 42.64 66.48 42.558 66.879 42.48 c 66.961
 42.48 67.039 42.48 67.039 42.558 c 67.121 42.558 67.121 42.64 67.121 42.718
 c 67.199 43.601 l 67.199 43.679 67.121 43.839 67.039 43.839 c 66.559 44
 65.84 44.082 65.199 44.082 c 63.121 44.082 62.719 43.281 62.719 42.16 c
 62.719 40.878 62.961 40.402 64.559 40.082 c 65.602 39.761 65.602 39.601
 65.602 39.281 c 65.602 38.878 65.602 38.718 64.879 38.718 c 64.32 38.718
 63.68 38.8 63.121 38.96 c 62.961 38.96 l 62.879 38.96 62.879 38.878 62.879
 38.8 c 62.719 37.839 l 62.719 37.761 62.801 37.601 62.879 37.601 c 63.52
 37.441 64.398 37.281 65.039 37.281 c 67.039 37.281 67.441 38.082 67.441
 39.359 c 67.359 40.718 67.121 40.96 65.359 41.441 c f
69.68 46.48 m 68.32 46.48 l 68.16 46.48 68.078 46.402 68.078 46.242 c 68.078
 45.039 l 68.078 44.878 68.16 44.8 68.32 44.8 c 69.68 44.8 l 69.84 44.8 
69.922 44.878 69.922 45.039 c 69.922 46.242 l 69.922 46.402 69.84 46.48 
69.68 46.48 c f
69.68 43.921 m 68.32 43.921 l 68.16 43.921 68.078 43.839 68.078 43.679 
c 68.078 37.519 l 68.078 37.359 68.16 37.281 68.32 37.281 c 69.68 37.281
 l 69.84 37.281 69.922 37.359 69.922 37.519 c 69.922 43.679 l 69.922 43.839
 69.84 43.921 69.68 43.921 c f
74.078 39.761 m 74.078 38.96 l 73.84 38.878 73.441 38.64 72.961 38.64 c
 72.559 38.64 72.398 38.8 72.398 39.199 c 72.398 39.601 72.48 39.761 72.961
 39.761 c h
73.199 44.082 m 72.48 44.082 71.68 44 71.121 43.839 c 71.039 43.839 70.961
 43.679 70.961 43.601 c 71.121 42.64 l 71.039 42.48 71.121 42.48 71.199 
42.402 c 71.281 42.402 71.281 42.32 71.359 42.402 c 71.922 42.48 72.48 42.558
 72.961 42.558 c 73.922 42.558 74.078 42.32 74.078 41.679 c 74.078 41.121
 l 72.641 41.121 l 71.281 41.121 70.641 40.558 70.641 39.199 c 70.641 37.921
 71.281 37.199 72.398 37.199 c 73.039 37.199 73.68 37.359 74.238 37.679 
c 74.32 37.441 l 74.32 37.359 74.398 37.281 74.559 37.281 c 75.68 37.281
 l 75.84 37.281 75.922 37.359 75.922 37.519 c 75.922 41.679 l 75.922 43.441
 75.121 44.082 73.199 44.082 c f
80.879 44.082 m 80.16 44.082 79.199 43.839 78.398 43.441 c 78.32 43.761
 l 78.32 43.839 78.238 43.921 78.078 43.921 c 77.121 43.921 l 76.961 43.921
 76.879 43.839 76.879 43.679 c 76.879 37.519 l 76.879 37.359 76.961 37.281
 77.121 37.281 c 78.398 37.281 l 78.559 37.281 78.641 37.359 78.641 37.519
 c 78.641 41.839 l 79.121 42.082 79.84 42.32 80.238 42.32 c 80.559 42.32
 80.641 42.242 80.641 41.921 c 80.641 37.601 l 80.641 37.441 80.719 37.359
 80.879 37.359 c 82.238 37.359 l 82.398 37.359 82.48 37.441 82.48 37.601
 c 82.48 42.082 l 82.398 43.441 81.922 44.082 80.879 44.082 c f
24.641 15.921 m 24.641 16.242 24.398 16.558 24 16.558 c 23.84 16.558 23.68
 16.48 23.602 16.402 c 22 14.96 19.281 13.679 15.922 13.679 c 12.641 13.679
 10 15.039 8.238 16.402 c 8.16 16.48 7.922 16.558 7.84 16.558 c 7.441 16.558
 7.199 16.242 7.199 15.839 c 7.199 15.519 7.359 15.281 7.602 15.039 c 8.559
 13.679 11.441 11.281 15.922 11.281 c 16 11.281 l 20.398 11.281 23.359 13.679
 24.32 15.121 c 24.398 15.359 24.641 15.679 24.641 15.921 c h
24.641 15.921 m f
24.719 6.16 m 24.801 6.082 24.801 6 24.801 6 c 24.801 5.921 24.719 5.839
 24.641 5.839 c 23.84 5.839 21.359 7.199 20.078 8.242 c 19.922 8.402 19.68
 8.48 19.281 8.402 c 18.238 8.16 17.039 8 15.922 8 c 8.559 8 2.641 12.878
 2.641 18.96 c 2.641 25.039 8.559 29.921 15.922 29.921 c 23.281 29.921 29.199
 25.039 29.199 18.96 c 29.199 15.359 27.121 12.16 23.84 10.16 c 23.602 10
 23.359 9.761 23.359 9.441 c 23.359 8.8 24 7.199 24.719 6.16 c h
29.039 4.878 m 27.922 5.519 26.879 6.64 26.32 8.082 c 26.238 8.402 26.32
 8.64 26.559 8.8 c 29.84 11.281 31.84 14.96 31.84 19.039 c 31.84 26.64 24.719
 32.8 15.922 32.8 c 7.121 32.718 0 26.558 0 19.039 c 0 11.441 7.121 5.281
 15.922 5.281 c 17.039 5.281 18.16 5.359 19.281 5.601 c 19.52 5.679 19.762
 5.601 19.922 5.441 c 22.078 4.082 25.359 2.96 28.16 2.96 c 29.039 2.96 
29.441 3.519 29.441 4.082 c 29.52 4.402 29.281 4.718 29.039 4.878 c h
29.039 4.878 m f
Q Q
showpage
%%Trailer
end restore
%%EOF
